…
-   using an ML algorthm, I train and test prediction from model 1 out
    of sample, it shows statitiscal significance in the fcat that
    Returns do predict Flows, thus positive past returns do result in
    flows to managers of said return.

``` r
# second approach 
library(tidyfit)
models <- data %>% 
  group_by(Fund) %>%   # So now I estimate each model for each fund
  regress(Returns ~ ., m("lm"), .mask = "date")
models
```

    ## # A tibble: 1,074 × 7
    ##    Fund  model estimator_fct `size (MB)` grid_id  model_object settings        
    ##    <chr> <chr> <chr>               <dbl> <chr>    <list>       <list>          
    ##  1 A1    lm    stats::lm           0.220 #0010000 <tidyFit>    <tibble [1 × 1]>
    ##  2 A1015 lm    stats::lm           0.223 #0010000 <tidyFit>    <tibble [1 × 1]>
    ##  3 A1041 lm    stats::lm           0.221 #0010000 <tidyFit>    <tibble [1 × 1]>
    ##  4 A105  lm    stats::lm           0.248 #0010000 <tidyFit>    <tibble [1 × 1]>
    ##  5 A1067 lm    stats::lm           0.228 #0010000 <tidyFit>    <tibble [1 × 1]>
    ##  6 A131  lm    stats::lm           0.225 #0010000 <tidyFit>    <tibble [1 × 1]>
    ##  7 A157  lm    stats::lm           0.233 #0010000 <tidyFit>    <tibble [1 × 1]>
    ##  8 A183  lm    stats::lm           0.225 #0010000 <tidyFit>    <tibble [1 × 1]>
    ##  9 A209  lm    stats::lm           0.247 #0010000 <tidyFit>    <tibble [1 × 1]>
    ## 10 A235  lm    stats::lm           0.267 #0010000 <tidyFit>    <tibble [1 × 1]>
    ## # ℹ 1,064 more rows
…
